<svg width="202" height="176" viewBox="0 0 202 176" fill="none" xmlns="http://www.w3.org/2000/svg">
<path d="M105.117 0.00815625C58.7008 -0.566478 17.0887 29.2721 3.80277 73.8238C-3.2211 97.3769 -2.05453 124.454 20.5711 150.004C61.0168 195.676 104.228 170.279 126.813 150.552C137.74 141.026 149.941 133.073 163.061 126.925C186.662 115.836 218.953 90.9907 191.452 43.7278C171.519 9.47153 136.034 0.39092 105.117 0.00815625Z" fill="#E6F1F0"/>
<path d="M50.2526 107.291C50.0262 106.956 49.8037 106.611 49.5911 106.268L49.9345 106.055C50.1442 106.395 50.3638 106.734 50.5871 107.065L50.2526 107.291Z" fill="#002D2D"/>
<path d="M48.374 104.104C47.9996 103.369 47.6516 102.61 47.3398 101.848L47.7133 101.695C48.0211 102.447 48.3644 103.196 48.7338 103.921L48.374 104.104ZM46.4962 99.5139C46.2485 98.728 46.0308 97.9218 45.849 97.1179L46.2428 97.0288C46.4221 97.822 46.6368 98.6172 46.8811 99.3925L46.4962 99.5139ZM45.4026 94.6766C45.2882 93.862 45.2062 93.0313 45.1587 92.2073L45.5618 92.1841C45.6085 92.9971 45.6895 93.8167 45.8023 94.6205L45.4026 94.6766ZM45.5202 89.7355L45.1167 89.726C45.1361 88.9009 45.1897 88.068 45.276 87.2503L45.6775 87.2927C45.5923 88.0995 45.5394 88.9213 45.5202 89.7355ZM46.0343 84.8711L45.6377 84.7958C45.7915 83.9863 45.981 83.1733 46.2011 82.3795L46.5902 82.4873C46.373 83.2705 46.186 84.0725 46.0343 84.8711ZM47.3418 80.1577L46.9631 80.0179C47.2485 79.2447 47.5701 78.4736 47.9189 77.7261L48.2847 77.8968C47.9406 78.6342 47.6233 79.3949 47.3418 80.1577ZM102.627 78.9099C102.311 78.1615 101.96 77.4166 101.583 76.6955L101.941 76.5085C102.323 77.2394 102.679 77.9945 102.999 78.753L102.627 78.9099ZM49.4113 75.7219L49.0609 75.5217C49.4697 74.8065 49.9136 74.0992 50.3805 73.4192L50.7132 73.6476C50.2527 74.3186 49.8146 75.0165 49.4113 75.7219ZM100.36 74.5747C99.925 73.8881 99.4562 73.2108 98.9663 72.5619L99.2885 72.3186C99.7851 72.9765 100.26 73.6629 100.701 74.3588L100.36 74.5747ZM52.1812 71.6875L51.8682 71.4324C52.3889 70.7935 52.9424 70.1685 53.5136 69.5745L53.8045 69.8542C53.2411 70.4403 52.6949 71.057 52.1812 71.6875ZM97.4125 70.6698C96.871 70.0629 96.2978 69.4712 95.7087 68.911L95.987 68.6185C96.5839 69.1863 97.1649 69.786 97.7136 70.401L97.4125 70.6698ZM55.5723 68.16L55.3052 67.8575C55.9228 67.3123 56.5708 66.7859 57.2311 66.293L57.4726 66.6165C56.821 67.1028 56.1817 67.6221 55.5723 68.16ZM93.8669 67.2976C93.2336 66.7872 92.5714 66.2969 91.8988 65.8404L92.1255 65.5063C92.8073 65.9692 93.4783 66.466 94.1201 66.9832L93.8669 67.2976ZM59.4926 65.2342L59.2785 64.892C59.9775 64.4549 60.7026 64.0418 61.434 63.6643L61.6191 64.0231C60.8976 64.3954 60.1822 64.803 59.4926 65.2342ZM89.8177 64.5499C89.1085 64.1496 88.3749 63.7746 87.6372 63.4353L87.8059 63.0685C88.5537 63.4125 89.2973 63.7927 90.0161 64.1982L89.8177 64.5499ZM63.8379 62.9917L63.683 62.619C64.4437 62.303 65.2268 62.0151 66.0104 61.7634L66.1338 62.1478C65.3608 62.3961 64.5883 62.68 63.8379 62.9917ZM85.3719 62.5048C84.6079 62.2274 83.8225 61.9787 83.0374 61.7655L83.1432 61.376C83.9389 61.592 84.7352 61.8441 85.5097 62.1253L85.3719 62.5048ZM68.4934 61.4966L68.4023 61.1034C69.2039 60.9175 70.0243 60.7629 70.8404 60.6437L70.8988 61.0431C70.0936 61.1608 69.2844 61.3133 68.4934 61.4966V61.4966ZM80.6496 61.2225C79.8517 61.0754 79.0362 60.9597 78.2256 60.8787L78.2658 60.477C79.0873 60.5592 79.914 60.6764 80.7227 60.8255L80.6496 61.2225ZM73.3334 60.7893L73.308 60.3864C74.129 60.3346 74.9661 60.3162 75.7888 60.331L75.7815 60.7347C74.9691 60.7198 74.1437 60.7383 73.3334 60.7893Z" fill="#002D2D"/>
<path d="M103.842 82.3834C103.734 81.9992 103.617 81.612 103.493 81.2325L103.877 81.1073C104.002 81.4921 104.121 81.8846 104.231 82.274L103.842 82.3834Z" fill="#002D2D"/>
<path d="M101.381 59.7771H100.977C100.977 59.3731 100.984 58.9632 100.998 58.559L101.402 58.573C101.388 58.9727 101.381 59.3778 101.381 59.7771Z" fill="#002D2D"/>
<path d="M101.573 56.1455L101.171 56.1028C101.258 55.2898 101.375 54.4702 101.519 53.6668L101.917 53.7381C101.774 54.5321 101.658 55.3421 101.573 56.1455ZM102.432 51.3617L102.041 51.262C102.243 50.4697 102.477 49.6753 102.735 48.9009L103.118 49.0286C102.863 49.794 102.632 50.5789 102.432 51.3617ZM166.812 47.1028C166.51 46.3536 166.177 45.6062 165.822 44.8814L166.185 44.704C166.544 45.4375 166.881 46.1938 167.186 46.952L166.812 47.1028ZM103.971 46.7489L103.599 46.5938C103.913 45.8395 104.258 45.0864 104.626 44.3555L104.987 44.5371C104.623 45.2594 104.282 46.0035 103.971 46.7489ZM164.675 42.7367C164.27 42.0391 163.833 41.347 163.378 40.6796L163.712 40.4521C164.172 41.1275 164.614 41.8278 165.024 42.5337L164.675 42.7367ZM106.158 42.4043L105.812 42.1973C106.23 41.4964 106.68 40.8008 107.149 40.1299L107.48 40.3611C107.016 41.0241 106.572 41.7115 106.158 42.4043H106.158ZM161.937 38.7203C161.435 38.0867 160.904 37.4637 160.36 36.8686L160.657 36.596C161.208 37.1982 161.745 37.8285 162.253 38.4696L161.937 38.7203ZM108.944 38.4179L108.63 38.1637C109.145 37.5286 109.689 36.9043 110.247 36.3083L110.542 36.5842C109.99 37.1734 109.452 37.7903 108.944 38.4179ZM158.654 35.134C158.068 34.5783 157.454 34.0371 156.83 33.5251L157.086 33.2131C157.717 33.731 158.338 34.2787 158.932 34.8409L158.654 35.134ZM112.267 34.8693L111.992 34.573C112.592 34.0181 113.219 33.4775 113.857 32.9665L114.109 33.2815C113.479 33.7865 112.859 34.3207 112.267 34.8693V34.8693ZM154.895 32.0503C154.236 31.5838 153.551 31.1353 152.86 30.7175L153.069 30.3721C153.768 30.7949 154.461 31.2487 155.128 31.7207L154.895 32.0503ZM116.059 31.8292L115.83 31.497C116.502 31.033 117.199 30.5875 117.903 30.1726L118.108 30.5203C117.413 30.9303 116.723 31.3707 116.059 31.8292V31.8292ZM150.735 29.5339C150.015 29.1663 149.274 28.8206 148.53 28.5061L148.687 28.1343C149.44 28.4525 150.19 28.8024 150.919 29.1744L150.735 29.5339ZM120.245 29.3617L120.065 29.0003C120.797 28.6372 121.551 28.2961 122.306 27.9865L122.459 28.36C121.713 28.6659 120.968 29.003 120.245 29.3617V29.3617ZM146.257 27.6399C145.493 27.3799 144.709 27.1444 143.927 26.9399L144.029 26.5494C144.821 26.7563 145.614 26.9947 146.387 27.2577L146.257 27.6399ZM124.739 27.5205L124.613 27.1369C125.389 26.8826 126.184 26.6533 126.978 26.4553L127.075 26.8469C126.291 27.0425 125.505 27.2691 124.739 27.5204L124.739 27.5205ZM141.553 26.4101C140.759 26.2628 139.95 26.1425 139.148 26.0524L139.193 25.6513C140.005 25.7424 140.824 25.8641 141.627 26.0132L141.553 26.4101ZM129.454 26.3437L129.385 25.9459C130.19 25.8059 131.01 25.6932 131.823 25.6109L131.864 26.0127C131.06 26.0939 130.249 26.2052 129.454 26.3437L129.454 26.3437ZM136.723 25.8673C135.914 25.8345 135.092 25.8301 134.29 25.8541L134.278 25.4506C135.09 25.4264 135.921 25.4306 136.739 25.464L136.723 25.8673Z" fill="#002D2D"/>
<path d="M167.993 50.5667C167.885 50.1825 167.768 49.7947 167.646 49.4138L168.03 49.2908C168.154 49.6761 168.272 50.0686 168.381 50.4573L167.993 50.5667Z" fill="#002D2D"/>
<path d="M50.0166 112.301C53.73 112.301 56.7403 112.075 56.7403 111.797C56.7403 111.518 53.73 111.292 50.0166 111.292C46.3031 111.292 43.2928 111.518 43.2928 111.797C43.2928 112.075 46.3031 112.301 50.0166 112.301Z" fill="#197472"/>
<path d="M103.639 87.9273C107.352 87.9273 110.363 87.7015 110.363 87.423C110.363 87.1445 107.352 86.9187 103.639 86.9187C99.9253 86.9187 96.915 87.1445 96.915 87.423C96.915 87.7015 99.9253 87.9273 103.639 87.9273Z" fill="#197472"/>
<path d="M169.868 62.5451C173.581 62.5451 176.592 62.3193 176.592 62.0408C176.592 61.7623 173.581 61.5365 169.868 61.5365C166.155 61.5365 163.144 61.7623 163.144 62.0408C163.144 62.3193 166.155 62.5451 169.868 62.5451Z" fill="#197472"/>
<path d="M167.204 60.3852L146.985 80.6035L147.271 80.8889L167.489 60.6706L167.204 60.3852Z" fill="#002D2D"/>
<path d="M141.124 83.1869H107.169V83.5906H141.124V83.1869Z" fill="#002D2D"/>
<path d="M100.971 85.9388L81.98 104.93L82.2654 105.216L101.257 86.2243L100.971 85.9388Z" fill="#002D2D"/>
<path d="M76.2393 107.561H53.5466V107.964H76.2393V107.561Z" fill="#002D2D"/>
<path d="M47.3778 110.116L24.8278 132.666L25.1132 132.951L47.6632 110.401L47.3778 110.116Z" fill="#002D2D"/>
<path d="M50.0166 111.494C49.2785 111.494 48.557 111.276 47.9433 110.865C47.3296 110.455 46.8512 109.873 46.5688 109.191C46.2863 108.509 46.2124 107.758 46.3564 107.035C46.5003 106.311 46.8558 105.646 47.3777 105.124C47.8996 104.602 48.5645 104.246 49.2884 104.102C50.0124 103.958 50.7627 104.032 51.4446 104.315C52.1266 104.597 52.7094 105.075 53.1195 105.689C53.5295 106.303 53.7484 107.024 53.7484 107.763C53.7473 108.752 53.3538 109.7 52.6542 110.4C51.9546 111.1 51.006 111.493 50.0166 111.494ZM50.0166 104.434C49.3584 104.434 48.7149 104.629 48.1676 104.995C47.6202 105.361 47.1936 105.881 46.9417 106.489C46.6898 107.097 46.6239 107.766 46.7523 108.412C46.8807 109.057 47.1977 109.65 47.6631 110.116C48.1286 110.581 48.7216 110.898 49.3672 111.027C50.0128 111.155 50.682 111.089 51.2902 110.837C51.8983 110.585 52.4181 110.159 52.7838 109.612C53.1495 109.064 53.3447 108.421 53.3447 107.763C53.3437 106.88 52.9928 106.034 52.3688 105.41C51.7449 104.786 50.899 104.435 50.0166 104.434Z" fill="#002D2D"/>
<path d="M79.7693 111.494C79.0312 111.494 78.3097 111.276 77.696 110.865C77.0823 110.455 76.6039 109.873 76.3215 109.191C76.039 108.509 75.9651 107.758 76.1091 107.034C76.2531 106.311 76.6085 105.646 77.1305 105.124C77.6524 104.602 78.3173 104.246 79.0412 104.102C79.7651 103.958 80.5155 104.032 81.1974 104.315C81.8793 104.597 82.4622 105.075 82.8722 105.689C83.2823 106.303 83.5012 107.024 83.5012 107.763C83.5001 108.752 83.1065 109.701 82.4069 110.4C81.7073 111.1 80.7587 111.493 79.7693 111.494ZM79.7693 104.434C79.111 104.434 78.4676 104.63 77.9202 104.995C77.3729 105.361 76.9463 105.881 76.6944 106.489C76.4425 107.097 76.3766 107.766 76.505 108.412C76.6335 109.057 76.9504 109.65 77.4159 110.116C77.8814 110.581 78.4744 110.898 79.12 111.027C79.7656 111.155 80.4348 111.089 81.0429 110.837C81.6511 110.585 82.1709 110.159 82.5366 109.612C82.9023 109.064 83.0975 108.421 83.0975 107.763C83.0965 106.88 82.7455 106.034 82.1216 105.41C81.4976 104.786 80.6517 104.435 79.7693 104.434Z" fill="#002D2D"/>
<path d="M103.639 87.1206C102.901 87.1206 102.179 86.9017 101.565 86.4917C100.952 86.0816 100.473 85.4988 100.191 84.8169C99.9086 84.135 99.8347 83.3846 99.9787 82.6608C100.123 81.9369 100.478 81.2719 101 80.75C101.522 80.2281 102.187 79.8727 102.911 79.7287C103.635 79.5847 104.385 79.6586 105.067 79.941C105.749 80.2235 106.332 80.7018 106.742 81.3155C107.152 81.9292 107.371 82.6507 107.371 83.3888C107.37 84.3782 106.976 85.3267 106.276 86.0264C105.577 86.726 104.628 87.1195 103.639 87.1206ZM103.639 80.0607C102.981 80.0607 102.337 80.2559 101.79 80.6216C101.242 80.9873 100.816 81.5071 100.564 82.1152C100.312 82.7234 100.246 83.3926 100.375 84.0381C100.503 84.6837 100.82 85.2768 101.285 85.7422C101.751 86.2076 102.344 86.5246 102.99 86.653C103.635 86.7814 104.304 86.7155 104.912 86.4636C105.521 86.2117 106.04 85.7851 106.406 85.2378C106.772 84.6905 106.967 84.047 106.967 83.3888C106.966 82.5064 106.615 81.6604 105.991 81.0365C105.367 80.4126 104.521 80.0616 103.639 80.0607V80.0607Z" fill="#002D2D"/>
<path d="M144.654 87.1206C143.916 87.1206 143.194 86.9017 142.58 86.4917C141.967 86.0816 141.488 85.4988 141.206 84.8169C140.924 84.135 140.85 83.3846 140.994 82.6608C141.138 81.9369 141.493 81.2719 142.015 80.75C142.537 80.2281 143.202 79.8727 143.926 79.7287C144.65 79.5847 145.4 79.6586 146.082 79.941C146.764 80.2235 147.347 80.7018 147.757 81.3155C148.167 81.9292 148.386 82.6507 148.386 83.3888C148.384 84.3782 147.991 85.3267 147.291 86.0264C146.592 86.726 145.643 87.1195 144.654 87.1206ZM144.654 80.0607C143.995 80.0607 143.352 80.2559 142.805 80.6216C142.257 80.9873 141.831 81.5071 141.579 82.1152C141.327 82.7234 141.261 83.3926 141.39 84.0381C141.518 84.6837 141.835 85.2768 142.3 85.7422C142.766 86.2076 143.359 86.5246 144.005 86.653C144.65 86.7814 145.319 86.7155 145.927 86.4636C146.536 86.2117 147.055 85.7851 147.421 85.2378C147.787 84.6905 147.982 84.047 147.982 83.3888C147.981 82.5064 147.63 81.6604 147.006 81.0365C146.382 80.4126 145.536 80.0616 144.654 80.0607V80.0607Z" fill="#002D2D"/>
<path d="M169.868 61.7383C169.13 61.7383 168.408 61.5194 167.795 61.1093C167.181 60.6993 166.703 60.1165 166.42 59.4346C166.138 58.7527 166.064 58.0023 166.208 57.2784C166.352 56.5545 166.707 55.8896 167.229 55.3677C167.751 54.8458 168.416 54.4904 169.14 54.3464C169.864 54.2024 170.614 54.2763 171.296 54.5587C171.978 54.8412 172.561 55.3195 172.971 55.9332C173.381 56.5468 173.6 57.2683 173.6 58.0064C173.599 58.9958 173.205 59.9444 172.506 60.644C171.806 61.3436 170.857 61.7372 169.868 61.7383ZM169.868 54.6783C169.21 54.6784 168.566 54.8736 168.019 55.2393C167.472 55.605 167.045 56.1248 166.793 56.7329C166.541 57.341 166.475 58.0102 166.604 58.6558C166.732 59.3014 167.049 59.8944 167.515 60.3599C167.98 60.8253 168.573 61.1423 169.219 61.2707C169.864 61.3991 170.534 61.3332 171.142 61.0813C171.75 60.8294 172.27 60.4028 172.635 59.8555C173.001 59.3081 173.196 58.6647 173.196 58.0064C173.195 57.1241 172.844 56.2781 172.22 55.6542C171.596 55.0303 170.75 54.6793 169.868 54.6783V54.6783Z" fill="#002D2D"/>
<path d="M22.4491 139.062C21.711 139.062 20.9895 138.843 20.3758 138.433C19.7621 138.023 19.2837 137.44 19.0013 136.758C18.7188 136.076 18.6449 135.326 18.7889 134.602C18.9328 133.878 19.2883 133.213 19.8102 132.691C20.3321 132.169 20.997 131.814 21.7209 131.67C22.4449 131.526 23.1952 131.6 23.8771 131.882C24.5591 132.165 25.1419 132.643 25.552 133.257C25.962 133.87 26.1809 134.592 26.1809 135.33C26.1798 136.319 25.7863 137.268 25.0867 137.968C24.3871 138.667 23.4385 139.061 22.4491 139.062ZM22.4491 132.002C21.7909 132.002 21.1474 132.197 20.6001 132.563C20.0527 132.928 19.6261 133.448 19.3742 134.056C19.1223 134.664 19.0564 135.334 19.1848 135.979C19.3132 136.625 19.6302 137.218 20.0956 137.683C20.5611 138.149 21.1541 138.466 21.7997 138.594C22.4453 138.723 23.1145 138.657 23.7227 138.405C24.3308 138.153 24.8506 137.726 25.2163 137.179C25.582 136.632 25.7772 135.988 25.7772 135.33C25.7762 134.448 25.4253 133.602 24.8013 132.978C24.1774 132.354 23.3315 132.003 22.4491 132.002Z" fill="#002D2D"/>
<path d="M50.0166 85.7421C49.1336 85.7421 48.2593 85.916 47.4435 86.2539C46.6277 86.5918 45.8865 87.0871 45.2621 87.7114C44.6378 88.3358 44.1425 89.077 43.8046 89.8928C43.4667 90.7085 43.2928 91.5829 43.2928 92.4658C43.2928 96.1793 50.0166 108.435 50.0166 108.435C50.0166 108.435 56.7403 96.1793 56.7403 92.4658C56.7403 91.5829 56.5664 90.7085 56.2285 89.8928C55.8906 89.077 55.3954 88.3358 54.771 87.7114C54.1466 87.0871 53.4054 86.5918 52.5896 86.2539C51.7739 85.916 50.8995 85.7421 50.0166 85.7421ZM50.0166 95.9958C49.3184 95.9958 48.6359 95.7888 48.0554 95.4009C47.4749 95.013 47.0225 94.4617 46.7553 93.8167C46.4881 93.1717 46.4182 92.4619 46.5544 91.7772C46.6906 91.0924 47.0268 90.4635 47.5205 89.9698C48.0142 89.4761 48.6432 89.1399 49.3279 89.0037C50.0127 88.8675 50.7224 88.9374 51.3674 89.2046C52.0125 89.4718 52.5638 89.9242 52.9516 90.5047C53.3395 91.0852 53.5465 91.7677 53.5465 92.4658C53.5465 93.4021 53.1746 94.2999 52.5126 94.9619C51.8506 95.6239 50.9528 95.9958 50.0166 95.9958Z" fill="#197472"/>
<path d="M103.639 60.528C101.855 60.528 100.145 61.2364 98.8843 62.4973C97.6234 63.7583 96.915 65.4685 96.915 67.2517C96.915 70.9652 103.639 83.2207 103.639 83.2207C103.639 83.2207 110.363 70.9652 110.363 67.2517C110.363 66.3688 110.189 65.4944 109.851 64.6787C109.513 63.8629 109.018 63.1217 108.393 62.4973C107.769 61.8729 107.028 61.3777 106.212 61.0398C105.396 60.7019 104.522 60.528 103.639 60.528ZM103.639 70.7817C102.941 70.7817 102.258 70.5747 101.678 70.1868C101.097 69.7989 100.645 69.2476 100.377 68.6026C100.11 67.9576 100.04 67.2478 100.177 66.5631C100.313 65.8783 100.649 65.2493 101.143 64.7557C101.636 64.262 102.265 63.9258 102.95 63.7896C103.635 63.6534 104.345 63.7233 104.99 63.9905C105.635 64.2576 106.186 64.7101 106.574 65.2906C106.962 65.8711 107.169 66.5536 107.169 67.2517C107.169 68.1879 106.797 69.0858 106.135 69.7478C105.473 70.4098 104.575 70.7817 103.639 70.7817Z" fill="#197472"/>
<path d="M169.868 36.3223C168.985 36.3223 168.111 36.4962 167.295 36.8341C166.479 37.172 165.738 37.6673 165.114 38.2916C164.489 38.916 163.994 39.6572 163.656 40.473C163.318 41.2887 163.144 42.1631 163.144 43.046C163.144 46.7595 169.868 59.015 169.868 59.015C169.868 59.015 176.592 46.7595 176.592 43.046C176.592 42.1631 176.418 41.2887 176.08 40.473C175.742 39.6572 175.247 38.916 174.622 38.2916C173.998 37.6673 173.257 37.172 172.441 36.8341C171.625 36.4962 170.751 36.3223 169.868 36.3223ZM169.868 46.576C169.17 46.576 168.487 46.369 167.907 45.9811C167.326 45.5932 166.874 45.0419 166.607 44.3969C166.34 43.7519 166.27 43.0421 166.406 42.3574C166.542 41.6726 166.878 41.0437 167.372 40.55C167.866 40.0563 168.495 39.7201 169.179 39.5839C169.864 39.4477 170.574 39.5176 171.219 39.7848C171.864 40.052 172.415 40.5044 172.803 41.0849C173.191 41.6654 173.398 42.3479 173.398 43.0461C173.398 43.9823 173.026 44.8801 172.364 45.5421C171.702 46.2041 170.804 46.576 169.868 46.576Z" fill="#197472"/>
</svg>
